{
  "country": [
    {
      "countryCode": "AG",
      "countryName": "Antigua and Barbuda",
      "currencyCode": "XCD",
      "Currency Name": "East Caribbean dollar",
      "currencySymbol": "XC$",
      "isoAlpha3": "ATG"
    }
  ,
    {
      "countryCode": "BB",
      "countryName": "Barbados",
      "currencyCode": "BBD",
      "Currency Name": "Barbadian dollar",
      "currencySymbol": "Bds$",
      "isoAlpha3": "BRB"
    }
  ,
    {
      "countryCode": "BZ",
      "countryName": "Belize",
      "currencyCode": "BZD",
      "Currency Name": "Belize dollar",
      "currencySymbol": "BZ$",
      "isoAlpha3": "BLZ"
    }
  ,
    {
      "countryCode": "CO",
      "countryName": "Colombia",
      "currencyCode": "COP",
      "Currency Name": "Colombia peso",
      "currencySymbol": "Col$",
      "isoAlpha3": "COL"
    }
  ,
    {
      "countryCode": "CR",
      "countryName": "Costa Rica",
      "currencyCode": "CRC",
      "Currency Name": "Costa Rican colon",
      "currencySymbol": "₡",
      "isoAlpha3": "CRI"
    }
  ,
    {
      "countryCode": "CU",
      "countryName": "Cuba",
      "currencyCode": "CUP",
      "Currency Name": "Cuban peso",
      "currencySymbol": "$",
      "isoAlpha3": "CUB"
    }
  ,
    {
      "countryCode": "DM",
      "countryName": "Dominica",
      "currencyCode": "XCD",
      "Currency Name": "East Caribbean dollar",
      "currencySymbol": "EC$",
      "isoAlpha3": "DMA"
    }
  ,
    {
      "countryCode": "SV",
      "countryName": "El Salvador",
      "currencyCode": "USD",
      "Currency Name": "United States dollar",
      "currencySymbol": "EUR",
      "isoAlpha3": "SLV"
    }
  ,
    {
      "countryCode": "FR",
      "countryName": "France",
      "currencyCode": "EUR",
      "Currency Name": "European euro",
      "currencySymbol": "€",
      "isoAlpha3": "FRA"
    }
  ,
    {
      "countryCode": "MQ",
      "countryName": "Martinique",
      "currencyCode": "EUR",
      "Currency Name": "European euro",
      "currencySymbol": "€",
      "isoAlpha3": "MTQ"
    }
  ,
    {
      "countryCode": "GD",
      "countryName": "Grenada",
      "currencyCode": "XCD",
      "Currency Name": "East Caribbean dollar",
      "currencySymbol": "EC$",
      "isoAlpha3": "GRD"
    }
  ,
    {
      "countryCode": "GT",
      "countryName": "Guatemala",
      "currencyCode": "GTQ",
      "Currency Name": "Guatemalan quetzal",
      "currencySymbol": "Q",
      "isoAlpha3": "GTM"
    }
  ,
    {
      "countryCode": "GY",
      "countryName": "Guyana",
      "currencyCode": "GYD",
      "Currency Name": "Guyanese dollar",
      "currencySymbol": "GY$",
      "isoAlpha3": "GUY"
    }
  ,
    {
      "countryCode": "HT",
      "countryName": "Haiti",
      "currencyCode": "HTG",
      "Currency Name": "Haitian gourde",
      "currencySymbol": "G",
      "isoAlpha3": "HTI"
    }
  ,
    {
      "countryCode": "NL",
      "countryName": "Kingdom of the Netherlands",
      "currencyCode": "EUR",
      "Currency Name": "European euro",
      "currencySymbol": "€",
      "isoAlpha3": "NLD"
    }
  ,
    {
      "countryCode": "NI",
      "countryName": "Nicaragua",
      "currencyCode": "NIO",
      "Currency Name": "Nicaraguan cordoba",
      "currencySymbol": "C$",
      "isoAlpha3": "NIC"
    }
  ,
    {
      "countryCode": "PA",
      "countryName": "Panama",
      "currencyCode": "PAB",
      "Currency Name": "United States dollar",
      "currencySymbol": "B./",
      "isoAlpha3": "PAN"
    }
  ,
    {
      "countryCode": "KN",
      "countryName": "Saint Kitts and Nevis",
      "currencyCode": "XCD",
      "Currency Name": "East Caribbean dollar",
      "currencySymbol": "EC$",
      "isoAlpha3": "KNA"
    }
  ,
    {
      "countryCode": "LC",
      "countryName": "Saint Lucia",
      "currencyCode": "XCD",
      "Currency Name": "East Caribbean dollar",
      "currencySymbol": "EC$",
      "isoAlpha3": "LCA"
    }
  ,
    {
      "countryCode": "VC",
      "countryName": "Saint Vincent and the Grenadines",
      "currencyCode": "XCD",
      "Currency Name": "East Caribbean dollar",
      "currencySymbol": "$",
      "isoAlpha3": "VCT"
    }
  ,
    {
      "countryCode": "HN",
      "countryName": "Honduras",
      "currencyCode": "HNL",
      "Currency Name": "Honduran lempira",
      "currencySymbol": "L",
      "isoAlpha3": "HND"
    }
  ,
    {
      "countryCode": "GB",
      "countryName": "United Kingdom",
      "currencyCode": "GBP",
      "Currency Name": "Pound sterling",
      "currencySymbol": "£",
      "isoAlpha3": "GBR"
    }
  ,
    {
      "countryCode": "US",
      "countryName": "United States of America",
      "currencyCode": "USD",
      "Currency Name": "United States dollar",
      "currencySymbol": "$",
      "isoAlpha3": "USA"
    }
  ,
    {
      "countryCode": "US",
      "countryName": "United States Virgin Islands",
      "currencyCode": "USD",
      "Currency Name": "United States dollar",
      "currencySymbol": "$",
      "isoAlpha3": ""
    }
  ,
    {
      "countryCode": "TC",
      "countryName": "Lucayan Archipelago",
      "currencyCode": "USD",
      "Currency Name": "United States dollar",
      "currencySymbol": "$",
      "isoAlpha3": "TC"
    }
  ,
    {
      "countryCode": "JM",
      "countryName": "Jamaica",
      "currencyCode": "JMD",
      "Currency Name": "Jamaican dollar",
      "currencySymbol": "J$",
      "isoAlpha3": "JAM"
    }
  ,
    {
      "countryCode": "TT",
      "countryName": "Trinidad and Tobago",
      "currencyCode": "TTD",
      "Currency Name": "Trinidad and Tobago dollar",
      "currencySymbol": "TT$",
      "isoAlpha3": "TTO"
    }
  ,
    {
      "countryCode": "TC",
      "countryName": "Turks and Caicos Islands",
      "currencyCode": "USD",
      "Currency Name": "United States dollar",
      "currencySymbol": "$",
      "isoAlpha3": "TCA"
    }

  ]

}
