{
	"sessionId": "028DEBB181336BAE268266FAC66B5631",
	"success": true,
	"code": "PSO",
	"message": "Login Successful.",
	"status": null,
	"details": null,
	"response": "{\"status\":\"Success\",\"code\":\"S00\",\"message\":\"Login Successful.\",\"balance\":0.0,\"details\":{\"activeAccount\":{\"accountNumber\":\"139056625420471\",\"balance\":0.0,\"country\":{\"countryCode\":\"CO\",\"currencyCode\":\"PSO\",\"currencyName\":\"Colombian Peso\",\"countryName\":\"Colombia\",\"extn\":0},\"type\":{\"id\":7,\"created\":1502724942000,\"lastModified\":1502724942000,\"version\":0,\"name\":\"Non - KYC\",\"description\":\"Unverified Account\",\"code\":\"NONKYCCO\",\"monthlyLimit\":20000.0,\"dailyLimit\":20000.0,\"balanceLimit\":20000.0,\"transactionLimit\":5,\"new\":false},\"dailyLimit\":20000.0,\"monthlyLimit\":20000.0,\"status\":\"Active\"},\"accountDetail\":[{\"accountNumber\":\"139056625420471\",\"balance\":0.0,\"country\":{\"countryCode\":\"CO\",\"currencyCode\":\"PSO\",\"currencyName\":\"Colombian Peso\",\"countryName\":\"Colombia\",\"extn\":0},\"type\":{\"id\":7,\"created\":1502724942000,\"lastModified\":1502724942000,\"version\":0,\"name\":\"Non - KYC\",\"description\":\"Unverified Account\",\"code\":\"NONKYCCO\",\"monthlyLimit\":20000.0,\"dailyLimit\":20000.0,\"balanceLimit\":20000.0,\"transactionLimit\":5,\"new\":false},\"dailyLimit\":0.0,\"monthlyLimit\":0.0,\"status\":null}],\"userDetail\":{\"firstName\":\"Vibhanshu\",\"lastName\":\" \",\"contactNo\":\"918769986881\",\"userType\":\"User\",\"authority\":\"ROLE_USER,ROLE_AUTHENTICATED\",\"emailStatus\":\"Active\",\"mobileStatus\":\"Active\",\"email\":\"vvyas@msewa.com\",\"mpin\":null,\"dateOfBirth\":\"19 Jul 1994\",\"gender\":\"M\"},\"sessionId\":\"028DEBB181336BAE268266FAC66B5631\"},\"txnId\":null,\"error\":null,\"valid\":false}",
	"username": null,
	"firstName": "Vibhanshu",
	"middleName": null,
	"lastName": " ",
	"address": null,
	"contactNo": null,
	"userType": null,
	"authority": null,
	"emailStatus": "Active",
	"mobileStatus": "Active",
	"email": null,
	"image": null,
	"balance": 0,
	"accountType": "Non - KYC",
	"dailyTransaction": 20000,
	"monthlyTransaction": 20000,
	"balanceLimit": 20000,
	"accountNumber": "139056625420471",
	"desc": null,
	"totalregisterUser": null,
	"country": "Colombia",
	"debitamount": 0
}