{
  "project_info": {
    "project_number": "158229869873",
    "firebase_url": "https://claro-user-apk.firebaseio.com",
    "project_id": "claro-user-apk",
    "storage_bucket": "claro-user-apk.appspot.com"
  },
  "client": [
    {
      "client_info": {
        "mobilesdk_app_id": "1:158229869873:android:332128a41a1ba904",
        "android_client_info": {
          "package_name": "com.Blockgration.Userwallet"
        }
      },
      "oauth_client": [
        {
          "client_id": "158229869873-hvnjvmkle9lq4rpggi89skk0in22vaeb.apps.googleusercontent.com",
          "client_type": 1,
          "android_info": {
            "package_name": "com.Blockgration.Userwallet",
            "certificate_hash": "8231680c9abfd2e71e1c7a9fc157f6bb40d62324"
          }
        },
        {
          "client_id": "158229869873-v12ppuq44ur2g546f56aq7r8ej7qa6o1.apps.googleusercontent.com",
          "client_type": 3
        }
      ],
      "api_key": [
        {
          "current_key": "AIzaSyBjg9nWhJsGNyK0ie7aTGaswMzpPxzXeps"
        },
        {
          "current_key": "AIzaSyAEEIwpd5X3Ka-2rankqWJSyTkAILAMfQU"
        }
      ],
      "services": {
        "analytics_service": {
          "status": 1
        },
        "appinvite_service": {
          "status": 2,
          "other_platform_oauth_client": [
            {
              "client_id": "158229869873-v12ppuq44ur2g546f56aq7r8ej7qa6o1.apps.googleusercontent.com",
              "client_type": 3
            }
          ]
        },
        "ads_service": {
          "status": 2
        }
      }
    }
  ],
  "configuration_version": "1"
}